<svg xmlns="http://www.w3.org/2000/svg" width="906.36" height="504.734" viewBox="0 0 906.36 504.734">
  <g id="Group_5" data-name="Group 5" transform="translate(0)">
    <path id="Path_1" data-name="Path 1" d="M934.359,465.5a143.052,143.052,0,0,1-20.694,74.379c0,27.428-12.787,52.29-33.529,70.409a114.668,114.668,0,0,1-16.7,12.106c-.238.151-.483.293-.729.436-.444.261-.887.523-1.339.792l-.42.246h0c-1.894,1.07-3.827,2.1-5.8,3.066A131.256,131.256,0,0,1,796.71,640.4H200.058q-7.13,0-14.134-.57a167.288,167.288,0,0,1-48.376-11.2q-4.532-1.79-8.889-3.85-2.076-.974-4.112-2c-.848-.428-1.7-.871-2.535-1.315a150.927,150.927,0,0,1-14.784-8.984,145.7,145.7,0,0,1-12.518-9.6C67.748,579.74,51.071,547.724,51.071,512.4A143.005,143.005,0,0,1,28,434.215c0-78.546,62.78-142.221,140.232-142.221,2.377,0,4.754.071,7.13.2a7.243,7.243,0,0,1,1.014.048c13.057-22.255,30.51-42.7,51.5-60.7,57.234-49.042,140.882-79.956,234.061-79.956,78.292,0,149.858,21.827,204.676,57.891a138,138,0,0,1,68.1-17.866c77.437,0,140.232,63.675,140.232,142.221a146.515,146.515,0,0,1-.792,14.879,142.609,142.609,0,0,1,60.213,116.8Z" transform="translate(-28 -135.671)" fill="#6c63ff" opacity="0.1"/>
    <path id="Path_2" data-name="Path 2" d="M802.29,381.174v-8.5a30.938,30.938,0,1,0-23.277,0v8.5a43.575,43.575,0,0,0-20.235,12.3,43.639,43.639,0,0,0-24.624-17.842v-8.509a30.938,30.938,0,1,0-23.277,0v8.5a43.575,43.575,0,0,0-18.389,10.426,43.638,43.638,0,0,0-23.3-15.972v-8.5a30.938,30.938,0,1,0-23.277,0v8.5a43.575,43.575,0,0,0-20.6,12.724,43.646,43.646,0,0,0-28.973-26.193v-8.5a30.938,30.938,0,1,0-23.277,0v8.5a43.575,43.575,0,0,0-31.691,37.847,43.273,43.273,0,0,0-13.128-6.156v-8.5a30.938,30.938,0,1,0-23.277,0v8.5a43.717,43.717,0,0,0-27.46,22.738,43.242,43.242,0,0,0-11.884-5.308v-8.5a30.938,30.938,0,1,0-23.277,0v8.5a43.012,43.012,0,0,0-11.258,4.928A43.686,43.686,0,0,0,403.824,388.3v-8.5a30.938,30.938,0,1,0-23.277,0v8.5a43.654,43.654,0,0,0-28.419,24.846,43.576,43.576,0,0,0-14.855-7.416v-8.5a30.938,30.938,0,1,0-23.277,0v8.5a43.575,43.575,0,0,0-31.936,41.99V644.208h87.1v-17.43h41.2v17.43h87.15v-17.43H560.1V595.087h53.875v13.469h64.966V614.1h68.135v5.546h87.15V423.164a43.575,43.575,0,0,0-31.935-41.99Z" transform="translate(-80.775 -164.115)" fill="#6c63ff" opacity="0.1"/>
    <path id="Path_3" data-name="Path 3" d="M455.408,169h72.437A134.91,134.91,0,0,1,662.762,303.916V486.7H320.5V303.908A134.908,134.908,0,0,1,455.408,169Z" transform="translate(-66.577 -35.106)" fill="#2f2e41"/>
    <path id="Path_4" data-name="Path 4" d="M465.408,178.28H522A134.91,134.91,0,0,1,656.916,313.2V481.269H330.5V313.188A134.908,134.908,0,0,1,465.408,178.28Z" transform="translate(-68.654 -37.034)" opacity="0.2"/>
    <path id="Path_5" data-name="Path 5" d="M875.9,718.076v13.833a131.254,131.254,0,0,1-58.438,13.469H220.831q-7.13,0-14.134-.57a167.288,167.288,0,0,1-48.376-11.2q-4.532-1.79-8.889-3.85-2.076-.975-4.112-2c-.848-.428-1.7-.871-2.535-1.315A150.929,150.929,0,0,1,128,717.466V679.9A22.9,22.9,0,0,1,150.9,657h658.56a22.9,22.9,0,0,1,15.053,5.681l43.575,38.188A22.873,22.873,0,0,1,875.9,718.076Z" transform="translate(-48.773 -240.661)" fill="#2f2e41"/>
    <path id="Path_6" data-name="Path 6" d="M462.887,355.5q-25.915,1.711-51.632,5.546c-4.872.729-9.816,1.537-14.261,3.692a41.832,41.832,0,0,0-9.46,6.782,124.688,124.688,0,0,0-30.106,40.826c-4.413,9.626-7.582,19.807-11.741,29.512-14.808,34.662-41.666,63.009-57.3,97.307-3.383,7.424-6.235,15.172-7.368,23.245-1.173,8.351.158,18.1,7.02,22.976,3.169,2.242,7.02,3.169,10.791,3.961a1300.517,1300.517,0,0,0,143.853,23.491c-5.237-5.055-6.988-12.89-6.3-20.132s3.534-14.087,6.338-20.8q-41.048-9.056-81.889-19.015c-4.064-.99-8.945-2.852-9.444-7-.254-2.115.792-4.151,1.822-6.013a322.588,322.588,0,0,1,41.515-58.628c0,22.231-1.1,47.338-1.1,69.577H650.4a196.487,196.487,0,0,1-5.419-38.7c-1.2-42.593,13.144-84.86,9.42-127.366-.349-3.922-.887-7.962-2.939-11.322-3.541-5.8-10.609-8.2-17.105-10.181-24.909-7.574-50.341-15.235-76.375-14.641-7.741.182-15.449,1.085-23.142,2C511.4,353.373,486.441,353.936,462.887,355.5Z" transform="translate(-80.481 -176.593)" fill="#6c63ff"/>
    <path id="Path_7" data-name="Path 7" d="M358.858,677.572l18.7,59.84a1.87,1.87,0,0,0,1.783,1.307h80.233L440.557,669l-80.067,6.156a1.87,1.87,0,0,0-1.632,2.416Z" transform="translate(-96.711 -243.154)" fill="#656478"/>
    <path id="Path_8" data-name="Path 8" d="M517.085,381.709c-3.486,2-7.55,2.725-11.512,3.415l-25.567,4.437c-4.975.864-10.212,1.846-14.047,5.134-7.843,6.711-6.148,19.062-3.771,29.108l4.754,20.155c3.581,15.148,7.241,30.479,14.586,44.2,12.827,23.95,36.357,41.2,62.233,49.509,9.246,2.971,19.015,4.9,28.664,3.843,18.9-2.076,35.074-15.552,45.041-31.754s14.712-34.995,19.062-53.518c4.175-17.731,8.145-35.716,7.875-53.938-.079-5.673-.65-11.6-3.676-16.408-6.631-10.561-21.661-11.353-33.981-9.4a12.606,12.606,0,0,1-5.752.063c-5.546-1.727-5.673-9.341-8.049-14.625-4.492-9.967-17.818-11.734-28.712-10.83s-27.856,2.068-37.348,8.24C517.759,365.238,527.789,375.537,517.085,381.709Z" transform="translate(-117.78 -177.073)" fill="#fbbebe"/>
    <path id="Path_9" data-name="Path 9" d="M517.085,381.709c-3.486,2-7.55,2.725-11.512,3.415l-25.567,4.437c-4.975.864-10.212,1.846-14.047,5.134-7.843,6.711-6.148,19.062-3.771,29.108l4.754,20.155c3.581,15.148,7.241,30.479,14.586,44.2,12.827,23.95,36.357,41.2,62.233,49.509,9.246,2.971,19.015,4.9,28.664,3.843,18.9-2.076,35.074-15.552,45.041-31.754s14.712-34.995,19.062-53.518c4.175-17.731,8.145-35.716,7.875-53.938-.079-5.673-.65-11.6-3.676-16.408-6.631-10.561-21.661-11.353-33.981-9.4a12.606,12.606,0,0,1-5.752.063c-5.546-1.727-5.673-9.341-8.049-14.625-4.492-9.967-17.818-11.734-28.712-10.83s-27.856,2.068-37.348,8.24C517.759,365.238,527.789,375.537,517.085,381.709Z" transform="translate(-117.78 -177.073)" opacity="0.1"/>
    <path id="Path_10" data-name="Path 10" d="M492.347,412.242c3.866,8.113,6.766,16.717,11.44,24.394,3.716,6.1,8.477,11.48,13.215,16.828,12.272,13.881,24.7,27.872,39.891,38.441a176.621,176.621,0,0,1,43.868-86.358c6.544-7.027,14.736-13.952,24.339-13.69,5.958.166,11.456,3.122,16.416,6.409a58.733,58.733,0,0,1,14.776,13.207c6.3,8.414,9.016,19.07,9.507,29.568s-1.141,20.971-2.757,31.35l-8.319,53.645c-.483,3.106-1.157,6.536-3.692,8.4a11.622,11.622,0,0,1-4.754,1.711c-30.241,5.887-61.409,2.068-92.221,1.767-34.068-.325-69.078,3.557-101.347-7.281a9.858,9.858,0,0,1-4.579-2.583,9.554,9.554,0,0,1-1.585-3.415c-7.519-24.339-1.489-50.492,2.971-75.567a592.911,592.911,0,0,0,7.535-60.038c.135-1.814,20.068,2.195,22.295,3.478C485.406,396.1,489.431,406.126,492.347,412.242Z" transform="translate(-114.203 -184.899)" fill="#6c63ff"/>
    <g id="Group_1" data-name="Group 1" transform="translate(85.54 212.128)" opacity="0.2">
      <path id="Path_11" data-name="Path 11" d="M190.776,665.308a9.432,9.432,0,0,1-.079,1.07q-4.532-1.79-8.889-3.85a7.21,7.21,0,0,1-4.112-2c-.848-.428-1.7-.872-2.535-1.315a10.845,10.845,0,0,1,.642-1.157c1.632-2.583,4.112-4.2,6.845-4.112s5.1,1.854,6.568,4.524a13.366,13.366,0,0,1,1.561,6.845Z" transform="translate(-144.11 -452.153)" fill="#3f3d56"/>
      <path id="Path_12" data-name="Path 12" d="M190.963,648.188a13.374,13.374,0,0,1-1.989,6.719c-1.632,2.575-4.112,4.191-6.845,4.1l-.563-.04a7.21,7.21,0,0,1-4.112-2,9.929,9.929,0,0,1-1.894-2.472,13.9,13.9,0,0,1,.428-13.564c1.632-2.583,4.112-4.2,6.845-4.112s5.1,1.854,6.568,4.524A13.366,13.366,0,0,1,190.963,648.188Z" transform="translate(-143.869 -448.596)" fill="#3f3d56"/>
      <ellipse id="Ellipse_1" data-name="Ellipse 1" cx="11.1" cy="8.477" rx="11.1" ry="8.477" transform="translate(30.225 196.61) rotate(-88.19)" fill="#3f3d56"/>
      <ellipse id="Ellipse_2" data-name="Ellipse 2" cx="11.1" cy="8.477" rx="11.1" ry="8.477" transform="translate(30.657 183.046) rotate(-88.19)" fill="#3f3d56"/>
      <ellipse id="Ellipse_3" data-name="Ellipse 3" cx="11.1" cy="8.477" rx="11.1" ry="8.477" transform="translate(31.081 169.482) rotate(-88.19)" fill="#3f3d56"/>
      <path id="Path_13" data-name="Path 13" d="M147.086,464.057a39.351,39.351,0,0,1-3.011-4.754l22.39-2.955-24.133-.57a40.707,40.707,0,0,1,.246-32.2l31.786,17.779-29.116-22.849a40.628,40.628,0,1,1,65.632,47.536,40.5,40.5,0,0,1,4.4,7.55l-29.37,14.134,31.16-9.373a40.675,40.675,0,0,1-7.764,37.95,40.628,40.628,0,1,1-63.8-2.036,40.628,40.628,0,0,1,1.585-50.214Z" transform="translate(-135.969 -399.247)" fill="#6c63ff"/>
      <path id="Path_14" data-name="Path 14" d="M218.786,515.447a40.454,40.454,0,0,1-9.507,24.838,40.628,40.628,0,1,1-63.778-2.012C140.248,531.19,218.928,510.892,218.786,515.447Z" transform="translate(-135.968 -423.248)" opacity="0.1"/>
    </g>
    <circle id="Ellipse_4" data-name="Ellipse 4" cx="17.137" cy="17.137" r="17.137" transform="translate(36.753 94.716)" fill="#6c63ff" opacity="0.1"/>
    <circle id="Ellipse_5" data-name="Ellipse 5" cx="17.137" cy="17.137" r="17.137" transform="translate(108.177 0)" fill="#6c63ff" opacity="0.1"/>
    <circle id="Ellipse_6" data-name="Ellipse 6" cx="28.72" cy="28.72" r="28.72" transform="translate(90.786 53.486)" fill="#6c63ff" opacity="0.1"/>
    <circle id="Ellipse_7" data-name="Ellipse 7" cx="66.551" cy="66.551" r="66.551" transform="translate(363.653 80.416)" fill="#fbbebe"/>
    <path id="Path_15" data-name="Path 15" d="M513.894,150.987c-17.755,2.25-36.92,5.221-49.469,17.977-7.02,7.13-11.131,16.638-14.514,26.05-5.245,14.657-9.151,30.106-7.923,45.659,1.093,13.912,6.243,28.142,2.076,41.468-1.917,6.132-5.681,11.488-8.6,17.2-5.419,10.609-7.97,22.5-8.905,34.377-.65,8.168-.523,16.574,2.163,24.315,2.86,8.24,8.438,15.251,11.971,23.221,5.229,11.773,5.752,25.02,6.156,37.894s.745,25.662,1.046,38.489c.19,8.065.206,16.7-4.255,23.427,16.471-6.6,33.172-13.334,47.267-24.109s25.5-26.311,27.325-43.963c1.474-14.308-3.359-28.411-7.527-42.181-10.3-34.068-16.955-70.385-9.46-105.174,2.7-12.526,9.27-26.509,21.875-28.815,7.693-1.4,15.37,2.107,22.3,5.736,16.384,8.572,33.275,19.664,39.376,37.118,5.546,15.782.879,33.363-6.338,48.432s-17.042,28.926-22.651,44.676c-8.612,24.164-6.188,52.456,8.121,73.745s40.747,34.385,66.171,30.946c-1.989-8.588-8.224-15.529-11.567-23.689-6.077-14.823-1.981-31.873,4.556-46.5s15.457-28.26,19.545-43.789c2.884-10.933,3.232-22.358,3.217-33.664,0-17.794-.879-35.6-2.591-53.312s-4.326-35.652-9.967-52.694c-4.532-13.667-11.131-26.882-21-37.364-10.506-11.163-24.18-18.729-37.609-26.145-8.034-4.421-16.242-8.9-25.258-10.553-7.13-1.307-14.625-3.169-21.9-3.288C522.578,146.408,517.38,147.477,513.894,150.987Z" transform="translate(-110.723 -134.611)" fill="#434175"/>
    <rect id="Rectangle_1" data-name="Rectangle 1" width="48.21" height="112.297" rx="2.9" transform="matrix(0.982, 0.19, -0.19, 0.982, 483.356, 93.53)" fill="#656478"/>
    <rect id="Rectangle_2" data-name="Rectangle 2" width="48.21" height="112.297" rx="2.9" transform="matrix(0.982, 0.19, -0.19, 0.982, 486.592, 94.158)" fill="#3f3d56"/>
    <ellipse id="Ellipse_8" data-name="Ellipse 8" cx="7.962" cy="3.288" rx="7.962" ry="3.288" transform="matrix(0.19, -0.982, 0.982, 0.19, 500.831, 129.808)" fill="#6c63ff"/>
    <path id="Path_16" data-name="Path 16" d="M671.791,327.612c-2.092-3.7-4.326-7.527-7.851-9.9a27.73,27.73,0,0,0-6.481-2.908c-7.677-2.686-15.481-5.4-23.6-5.823-1.323-.063-2.836,0-3.7,1.014-1.775,2.084,1.038,4.92,3.47,6.18L652.975,326.2l-17.834-1.886c-2.591-.277-6.283.428-6.093,3.026.127,1.7,2,2.63,3.613,3.169,11.448,3.961,24.679,7.067,30.946,17.43-8.351-.792-16.883-1.585-25.068.254-2.242.507-4.563,1.291-6.029,3.058s-1.632,4.754.214,6.156a6.218,6.218,0,0,0,4.1.792c5.807-.277,11.765-1.434,17.343.222s10.529,7.5,8.6,12.985c4.944.444,10.791,0,15.362-2.131,5.039-2.377,4.92-6.845,4.611-12.233C682.091,346.492,676.854,336.644,671.791,327.612Z" transform="translate(-152.853 -168.365)" fill="#fbbebe"/>
    <path id="Path_17" data-name="Path 17" d="M669.944,512.746a891.465,891.465,0,0,0-18.222-92.632c-3.961-15.845-8.461-31.96-7.329-48.265,16.368,2.084,31.033,3.629,46.118-3.058.246,8.564,6.457,15.845,8.715,24.125,1.513,5.546.943,11.417,1.537,17.129s2.377,11.25,3.906,16.8a206.173,206.173,0,0,1,5.253,84.567C695.923,513.079,683.912,514.909,669.944,512.746Z" transform="translate(-156.005 -180.792)" opacity="0.1"/>
    <path id="Path_18" data-name="Path 18" d="M666.944,512.746a891.463,891.463,0,0,0-18.222-92.632c-3.961-15.845-8.461-31.96-7.328-48.265,16.368,2.084,31.033,3.629,46.118-3.058.246,8.564,6.457,15.845,8.715,24.125,1.513,5.546.943,11.417,1.537,17.129s2.377,11.25,3.906,16.8a206.173,206.173,0,0,1,5.253,84.567C692.923,513.079,680.912,514.909,666.944,512.746Z" transform="translate(-155.382 -180.792)" fill="#6c63ff"/>
    <path id="Path_19" data-name="Path 19" d="M384.628,691.857l7.756-192.419a11.773,11.773,0,0,1,11.884-11.3L710.5,491.071a11.773,11.773,0,0,1,11.607,12.8L705.926,688.212A11.773,11.773,0,0,1,694.4,698.956l-297.8,5.15a11.781,11.781,0,0,1-11.971-12.248Z" transform="translate(-102.08 -205.584)" fill="#3f3d56"/>
    <ellipse id="Ellipse_9" data-name="Ellipse 9" cx="13.469" cy="15.845" rx="13.469" ry="15.845" transform="translate(440.107 354.146)" fill="#6c63ff"/>
    <path id="Path_20" data-name="Path 20" d="M944.974,584.76l-.634,5.435-10.3,87.831c-26.85,18.721-47.734.729-47.917,0l-12.977-88.243-.737-5.023Z" transform="translate(-203.408 -225.655)" fill="#3f3d56"/>
    <path id="Path_21" data-name="Path 21" d="M944.974,584.76l-.634,5.435c-30.249,17.589-62.518,3.9-71.194-.412l-.737-5.023Z" transform="translate(-203.408 -225.655)" opacity="0.1"/>
    <path id="Path_22" data-name="Path 22" d="M870.5,578.74v7.923s40.01,23.261,76.058,0V578.74Z" transform="translate(-203.011 -224.404)" fill="#6c63ff"/>
    <path id="Path_23" data-name="Path 23" d="M875.151,565.53s-1.165,5.348-4.651,5.815v6.742h76.058v-6.045a5.621,5.621,0,0,1-3.961-6.512Z" transform="translate(-203.011 -221.66)" fill="#6c63ff"/>
    <ellipse id="Ellipse_10" data-name="Ellipse 10" cx="34.305" cy="9.888" rx="34.305" ry="9.888" transform="translate(670.983 334.561)" fill="#6c63ff"/>
    <ellipse id="Ellipse_11" data-name="Ellipse 11" cx="34.305" cy="9.888" rx="34.305" ry="9.888" transform="translate(670.983 334.561)" opacity="0.1"/>
    <path id="Path_24" data-name="Path 24" d="M940.975,563.638c0,3.961-13.009,7.21-29.068,7.21h-.856c-10.783-.079-20.1-1.585-24.854-3.835-2.147-1.014-3.367-2.163-3.367-3.375,0-2.012,3.328-3.835,8.715-5.142a89.911,89.911,0,0,1,20.385-2.068C927.966,556.428,940.975,559.653,940.975,563.638Z" transform="translate(-205.572 -219.768)" opacity="0.1"/>
    <path id="Path_25" data-name="Path 25" d="M911.934,571.383c-10.783-.079-20.1-1.585-24.854-3.835h0L892.4,559Z" transform="translate(-206.455 -220.304)" opacity="0.1"/>
    <path id="Path_26" data-name="Path 26" d="M879.828,566.224c-.412-.087-.959.056-1.038.468a1.006,1.006,0,0,0,.158.594,8.454,8.454,0,0,0,3.787,3.24,2.257,2.257,0,0,0,.864.277.792.792,0,0,0,.792-.412.9.9,0,0,0-.055-.737,3.273,3.273,0,0,0-.982-1.078C882.292,567.745,881.206,566.453,879.828,566.224Z" transform="translate(-204.732 -221.799)" opacity="0.1"/>
    <circle id="Ellipse_12" data-name="Ellipse 12" cx="20.464" cy="20.464" r="20.464" transform="translate(685.981 388.182)" fill="#6c63ff"/>
    <path id="Path_27" data-name="Path 27" d="M183.137,515.85h9.594a19.807,19.807,0,0,1,19.807,19.807V565.09H163.33V535.657A19.807,19.807,0,0,1,183.137,515.85Z" transform="translate(-33.928 -107.156)" fill="#3f3d56"/>
    <path id="Path_28" data-name="Path 28" d="M183.137,515.85h9.594a19.807,19.807,0,0,1,19.807,19.807V565.09H163.33V535.657A19.807,19.807,0,0,1,183.137,515.85Z" transform="translate(-33.928 -107.156)" opacity="0.1"/>
    <circle id="Ellipse_13" data-name="Ellipse 13" cx="3.938" cy="3.938" r="3.938" transform="translate(148.099 411.649)" fill="#3f3d56"/>
    <circle id="Ellipse_14" data-name="Ellipse 14" cx="3.938" cy="3.938" r="3.938" transform="translate(148.099 406.729)" fill="#3f3d56"/>
    <circle id="Ellipse_15" data-name="Ellipse 15" cx="3.938" cy="3.938" r="3.938" transform="translate(148.099 401.801)" fill="#3f3d56"/>
    <circle id="Ellipse_16" data-name="Ellipse 16" cx="3.938" cy="3.938" r="3.938" transform="translate(148.099 396.881)" fill="#3f3d56"/>
    <circle id="Ellipse_17" data-name="Ellipse 17" cx="3.938" cy="3.938" r="3.938" transform="translate(148.099 391.961)" fill="#3f3d56"/>
    <circle id="Ellipse_18" data-name="Ellipse 18" cx="3.938" cy="3.938" r="3.938" transform="translate(148.099 387.041)" fill="#3f3d56"/>
    <circle id="Ellipse_19" data-name="Ellipse 19" cx="3.938" cy="3.938" r="3.938" transform="translate(148.099 382.121)" fill="#3f3d56"/>
    <circle id="Ellipse_20" data-name="Ellipse 20" cx="3.938" cy="3.938" r="3.938" transform="translate(154.01 384.086)" fill="#3f3d56"/>
    <circle id="Ellipse_21" data-name="Ellipse 21" cx="3.938" cy="3.938" r="3.938" transform="translate(157.947 382.121)" fill="#3f3d56"/>
    <circle id="Ellipse_22" data-name="Ellipse 22" cx="3.938" cy="3.938" r="3.938" transform="translate(161.885 380.148)" fill="#3f3d56"/>
    <circle id="Ellipse_23" data-name="Ellipse 23" cx="3.938" cy="3.938" r="3.938" transform="translate(148.099 377.201)" fill="#3f3d56"/>
    <circle id="Ellipse_24" data-name="Ellipse 24" cx="3.938" cy="3.938" r="3.938" transform="translate(148.099 372.281)" fill="#3f3d56"/>
    <circle id="Ellipse_25" data-name="Ellipse 25" cx="3.938" cy="3.938" r="3.938" transform="translate(148.099 367.353)" fill="#3f3d56"/>
    <circle id="Ellipse_26" data-name="Ellipse 26" cx="3.938" cy="3.938" r="3.938" transform="translate(148.099 362.433)" fill="#3f3d56"/>
    <path id="Path_29" data-name="Path 29" d="M231.834,574.265c-.975.143-1.957.246-2.939.309a22.635,22.635,0,0,0,2.543-2.615,16.813,16.813,0,0,0-2.377-4.619,8.1,8.1,0,0,1-3.169,1c-.975.143-1.957.246-2.939.317a49.094,49.094,0,0,0,3.763-3.961,16.709,16.709,0,1,0,5.237,9.507Z" transform="translate(-63.476 -220.587)" fill="#6c63ff"/>
    <path id="Path_30" data-name="Path 30" d="M253,602.094a7.669,7.669,0,0,1-3.312,1.1c-.974.143-1.957.254-2.939.317a28.84,28.84,0,0,0,2.916-3.026A9.856,9.856,0,1,0,253,602.07Z" transform="translate(-71.481 -228.855)" fill="#6c63ff"/>
    <circle id="Ellipse_27" data-name="Ellipse 27" cx="3.938" cy="3.938" r="3.938" transform="translate(142.197 384.086)" fill="#3f3d56"/>
    <circle id="Ellipse_28" data-name="Ellipse 28" cx="3.938" cy="3.938" r="3.938" transform="translate(138.259 382.121)" fill="#3f3d56"/>
    <circle id="Ellipse_29" data-name="Ellipse 29" cx="3.938" cy="3.938" r="3.938" transform="translate(134.322 380.148)" fill="#3f3d56"/>
    <path id="Path_31" data-name="Path 31" d="M181.642,602.094a7.638,7.638,0,0,0,3.312,1.1c.975.143,1.957.254,2.939.317a28.063,28.063,0,0,1-2.916-3.026,9.856,9.856,0,1,1-3.335,1.585Z" transform="translate(-59.078 -228.855)" fill="#6c63ff"/>
    <path id="Path_32" data-name="Path 32" d="M183.137,519.58h9.594a19.807,19.807,0,0,1,19.807,19.807v26.042a3.359,3.359,0,0,1-3.359,3.359h-42.49a3.359,3.359,0,0,1-3.359-3.359V539.387a19.807,19.807,0,0,1,19.807-19.807Z" transform="translate(-33.928 -107.931)" fill="#3f3d56"/>
    <g id="Group_2" data-name="Group 2" transform="translate(135.542 340.015)" opacity="0.1">
      <path id="Path_33" data-name="Path 33" d="M240.548,579.27a14.929,14.929,0,0,1-1.268,1.2,12.875,12.875,0,0,0,1.347-.119A7.075,7.075,0,0,0,240.548,579.27Z" transform="translate(-207.43 -564.53)"/>
      <path id="Path_34" data-name="Path 34" d="M231.82,572.47c.99-.063,1.965-.166,2.947-.309a9.5,9.5,0,0,0,2.559-.7,16.861,16.861,0,0,0-1.379-2.274,5.958,5.958,0,0,1-1.585.673,22.8,22.8,0,0,1-2.543,2.607Z" transform="translate(-205.881 -562.436)"/>
      <path id="Path_35" data-name="Path 35" d="M200.815,579.153a16.7,16.7,0,0,1,25.749-14.071l.254-.269a16.717,16.717,0,1,0-22.041,25.139,16.638,16.638,0,0,1-3.961-10.8Z" transform="translate(-199.08 -560.665)"/>
    </g>
    <g id="Group_3" data-name="Group 3" transform="translate(165.822 371.298)" opacity="0.1">
      <path id="Path_36" data-name="Path 36" d="M249.22,605.977c.982-.063,1.965-.166,2.939-.309a7.685,7.685,0,0,0,3.312-1.109,9.848,9.848,0,0,1,3.961,6.972,9.016,9.016,0,0,0,.055-1.038,9.808,9.808,0,0,0-3.961-7.923,7.668,7.668,0,0,1-3.312,1.1l-.792.1A20.1,20.1,0,0,1,249.22,605.977Z" transform="translate(-239.776 -600.653)"/>
      <path id="Path_37" data-name="Path 37" d="M247.14,602.115a8.088,8.088,0,0,1,.982.071c.515-.547,1.022-1.133,1.537-1.7A9.824,9.824,0,0,0,237.3,609.99a6.744,6.744,0,0,0,.048.982A9.84,9.84,0,0,1,247.14,602.115Z" transform="translate(-237.3 -600.15)"/>
    </g>
    <g id="Group_4" data-name="Group 4" transform="translate(118.547 371.298)" opacity="0.1">
      <path id="Path_38" data-name="Path 38" d="M187.9,605.977c-.982-.063-1.965-.166-2.939-.309a7.645,7.645,0,0,1-3.312-1.109,9.848,9.848,0,0,0-3.961,6.972,9.016,9.016,0,0,1-.055-1.038,9.808,9.808,0,0,1,3.961-7.923,7.639,7.639,0,0,0,3.312,1.1l.792.1a18.759,18.759,0,0,0,2.2,2.2Z" transform="translate(-177.63 -600.653)"/>
      <path id="Path_39" data-name="Path 39" d="M189.429,602.115a8.206,8.206,0,0,0-.99.071c-.507-.547-1.014-1.133-1.529-1.7a9.824,9.824,0,0,1,12.359,9.507,6.748,6.748,0,0,1-.048.982A9.84,9.84,0,0,0,189.429,602.115Z" transform="translate(-179.558 -600.15)"/>
    </g>
  </g>
</svg>
