<svg xmlns="http://www.w3.org/2000/svg" width="300" height="73" viewBox="0 0 300 73">
  <g id="Group_18" data-name="Group 18" transform="translate(-120 -71)">
    <text id="Brandy" transform="translate(223 128)" fill="#707070" font-size="53" font-family="SegoeUI-Bold, Segoe UI" font-weight="700" letter-spacing="0.075em"><tspan x="0" y="0">Brandy</tspan></text>
    <path id="Icon_awesome-twitter" data-name="Icon awesome-twitter" d="M80.642,21.574c.057.8.057,1.6.057,2.4,0,24.352-18.535,52.412-52.412,52.412A52.056,52.056,0,0,1,0,68.111a38.107,38.107,0,0,0,4.448.228,36.892,36.892,0,0,0,22.87-7.87A18.454,18.454,0,0,1,10.094,47.694a23.23,23.23,0,0,0,3.479.285,19.483,19.483,0,0,0,4.848-.627A18.424,18.424,0,0,1,3.65,29.273v-.228a18.552,18.552,0,0,0,8.326,2.338,18.449,18.449,0,0,1-5.7-24.637A52.361,52.361,0,0,0,44.256,26.022,20.8,20.8,0,0,1,43.8,21.8,18.439,18.439,0,0,1,75.68,9.2,36.268,36.268,0,0,0,87.372,4.75a18.371,18.371,0,0,1-8.1,10.152A36.929,36.929,0,0,0,89.881,12.05a39.6,39.6,0,0,1-9.239,9.524Z" transform="translate(120 67.619)" fill="#414141"/>
  </g>
</svg>
